Home Field Advantage in the NFL | Sabin Analytics
…
Such Bayesian power ranking based methods as mine or Lopez, Baumer, & Matthews 2017 paper can and will always rank a team’s home field advantage, but have a hard time finding in noisy game results posterior distributions of individual home field advantages that don’t overlap significantly.

Also in 2024 I looked at college basketball to see if you could do something similar. Like my college football work or the aforementioned “How often does the best team win?” paper, the number of teams with 95% posterior significance from an average home field advantage was right in line with what you would expect with multiple testing. But… I was able to show one specific aspect of home field advantage (free throws) were impacted in stadiums where the opposing student sections were directly behind the visiting team’s basket in the 2nd half.

Home Field Advantage by Year

The easiest way to estimate home field advantage by year is to build a model which accounts for the teams in each game, the scoring efficiences of each team, and the location of the game. This model can then be used to estimate the home field advantage for each year.

I will use expected points added (EPA) per play as the efficiency metric for each team in each game. I will use a Bayesian model to estimate the home field advantage for each year. I will ignore all QB kneels, spikes, and kickoffs in the model as these plays are not indicative of a team’s efficiency. The EPA model used is the one included with NFLFastR which is built via XGBoost. There may be better models out there, especially in edge situations, but this model is still very good and the most easy to access.

I will fit mixed model. In this format it acts like ridge regression, shrinking estimates to 0, which will be good for estimating season by season home field advantage and team effects. I will also put a spline on the difference for team rest, as I have found in the past that the effect of rest is not linear. Be sure to include separate team effects for offense and defense for each season.

# A tibble: 640 × 5
   team  season    off    def    tot
   <chr> <chr>   <dbl>  <dbl>  <dbl>
 1 ARI   2005    -1.25 -0.885  -2.13
 2 ARI   2006    -2.76 -2.67   -5.43
 3 ARI   2007    -3.32 -0.480  -3.80
 4 ARI   2008     1.38  0.531   1.91
 5 ARI   2009     3.67 -0.644   3.03
 6 ARI   2010   -10.4  -1.98  -12.3 
 7 ARI   2011    -8.55  0.232  -8.32
 8 ARI   2012    -9.34  2.64   -6.71
 9 ARI   2013     1.20  4.46    5.66
10 ARI   2014    -2.03  3.20    1.17
# ℹ 630 more rows
…
And the random effects for teams, sorted by the teams that get biggest increase in opponent penalty yards per 70 plays to the least.

# A tibble: 33 × 3
   team  estimate std.error
   <chr>    <dbl>     <dbl>
 1 TEN      2.01      0.961
 2 OAK      1.72      1.28 
 3 NYJ      1.71      0.968
 4 DAL      1.65      0.959
 5 NO       1.39      0.962
 6 CLE      1.04      0.961
 7 BAL      0.742     0.952
 8 LV       0.586     1.01 
 9 DET      0.581     0.959
10 JAX      0.540     0.964
# ℹ 23 more rows
…
